Assignment - Real-Time, Streaming Social Media
…
Getting sentences of words with tf-idf >= 6

# A tibble: 101 x 7
    line word          n    tf   idf tf_idf message                   
   <int> <chr>     <int> <dbl> <dbl>  <dbl> <chr>                     
 1   329 anarchist     1     1  8.24   8.24 @POKPOKPOK Anarchist!     
 2   471 freebird      1     1  8.24   8.24 Freebird!! #POK           
 3  1157 omgwtfbbq     1     1  8.24   8.24 OMGWTFBBQ!!!!             
 4  1374 apt           1     1  8.24   8.24 and not in her apt        
 5  2154 wall          1     1  8.24   8.24 going to get behind a wall
 6  2439 getout        1     1  8.24   8.24 we cant getout            
 7  2450 finallyh~     1     1  8.24   8.24 #finallyhere - but where ~
 8  2772 thsi          1     1  8.24   8.24 Hello am i using thsi rig~
 9  2878 negoitat~     1     1  8.24   8.24 Negoitator?  #TAG         
10  2902 tourname~     1     1  8.24   8.24 Come on down for the tour~
# ... with 91 more rows
…
